6 Anhang: Data Wrangling – Tagebuchstudien und Mehrebenenmodelle
…
%>% ist der ursprüngliche Pipe-Operator, der für das Paket {magrittr} entwickelt wurde und in den gesamten tidyverse-Paketen verwendet wird. Er ist etwas langsamer, aber auch flexibler. |> ist eine neuere Version des Pipe-Operators, die in Base-R integriert wurde. Sie ist etwas schneller, aber weniger flexibel.

Die Ausgabe des linken Teils der Pipe wird als Eingabe für den rechten Teil der Pipe verwendet, in der Regel als erstes Argument oder als Datenargument. Effektiv transportiert die Pipe den Inhalt von links nach rechts weiter. Schreiben lässt sich die Pipe mit den Tasten Ctrl + Shift + M (unter Windows; unter Mac Cmd + Shift + M?).

# use a function without the pipe
example_without_pipe <- select(df_beispiel, gender, ACT)

# use a function with the pipe. 
example_with_pipe <- df_beispiel |> 
  select(gender, ACT)

example_without_pipe

# A tibble: 700 × 2
   gender   ACT
    <int> <int>
 1      2    24
 2      2    35
 3      2    21
 4      1    26
 5      1    31
 6      1    28
 7      2    36
 8      1    22
 9      2    22
10      2    35
# ℹ 690 more rows

example_with_pipe

# A tibble: 700 × 2
   gender   ACT
    <int> <int>
 1      2    24
 2      2    35
 3      2    21
 4      1    26
 5      1    31
 6      1    28
 7      2    36
 8      1    22
 9      2    22
10      2    35
# ℹ 690 more rows
…
16 Auswahl und Extraktion

Es gibt verschieden Möglichkeiten, Inhalte aus Variablen auszuwählen und zu extrahieren:

select() / |> slice() / pluck()

[]

$

Im ersten Beispiel wollen wir die Variable x aus unserem Dataframe df_beispiel auswählen.

select(df_beispiel, ACT) # select ohne pipe

# A tibble: 700 × 1
     ACT
   <int>
 1    24
 2    35
 3    21
 4    26
 5    31
 6    28
 7    36
 8    22
 9    22
10    35
# ℹ 690 more rows

df_beispiel |> select(ACT) # select mit pipe

# A tibble: 700 × 1
     ACT
   <int>
 1    24
 2    35
 3    21
 4    26
 5    31
 6    28
 7    36
 8    22
 9    22
10    35
# ℹ 690 more rows

df_beispiel[,"ACT"] # []

# A tibble: 700 × 1
     ACT
   <int>
 1    24
 2    35
 3    21
 4    26
 5    31
 6    28
 7    36
 8    22
 9    22
10    35
# ℹ 690 more rows
…
16.1 Auswahl von Spalten / Variablen mittels Helfern

Beim Data Wrangling bearbeiten wir häufig Gruppen von Variablen / Spalten. Damit wir nicht immer jede einzelne Variable ausschreiben müssen, gibt es verschiedene Methoden. Hilfreich sind vor allem die sogenannten “tidyselect” Helferfunktionen. Diese können wir in select(), aber auch vielen anderen Funktionen verwenden, bei der wir Spalten aus einem Datensatz ansteuern.

Die häufigsten Helfer sind :, c(), starts_with(), ends_with(), contains(), all_of(), num_range.

names(df_beispiel)

[1] "gender"    "education" "age"       "ACT"       "SATV"      "SATQ"     

df_beispiel |> select(age:gender)

# A tibble: 700 × 3
     age education gender
   <int>     <int>  <int>
 1    19         3      2
 2    23         3      2
 3    20         3      2
 4    27         4      1
 5    33         2      1
 6    26         5      1
 7    30         5      2
 8    19         3      1
 9    23         4      2
10    40         5      2
# ℹ 690 more rows

df_beispiel |> select(c(age,gender))

# A tibble: 700 × 2
     age gender
   <int>  <int>
 1    19      2
 2    23      2
 3    20      2
 4    27      1
 5    33      1
 6    26      1
 7    30      2
 8    19      1
 9    23      2
10    40      2
# ℹ 690 more rows

df_beispiel |> select(starts_with("S"))

# A tibble: 700 × 2
    SATV  SATQ
   <int> <int>
 1   500   500
 2   600   500
 3   480   470
 4   550   520
 5   600   550
 6   640   640
 7   610   500
 8   520   560
 9   400   600
10   730   800
# ℹ 690 more rows

df_beispiel |> select(ends_with("V"))

# A tibble: 700 × 1
    SATV
   <int>
 1   500
 2   600
 3   480
 4   550
 5   600
 6   640
 7   610
 8   520
 9   400
10   730
# ℹ 690 more rows

df_beispiel |> select(contains("SAT"))

# A tibble: 700 × 2
    SATV  SATQ
   <int> <int>
 1   500   500
 2   600   500
 3   480   470
 4   550   520
 5   600   550
 6   640   640
 7   610   500
 8   520   560
 9   400   600
10   730   800
# ℹ 690 more rows

meine_variablen <- c("SATV", "SATQ", "gender")
df_beispiel |> select(all_of(meine_variablen))

# A tibble: 700 × 3
    SATV  SATQ gender
   <int> <int>  <int>
 1   500   500      2
 2   600   500      2
 3   480   470      2
 4   550   520      1
 5   600   550      1
 6   640   640      1
 7   610   500      2
 8   520   560      1
 9   400   600      2
10   730   800      2
# ℹ 690 more rows
…
17 Spalten mutieren und neue Anlegen

mutate() is used to create new columns or to change the contents of existing ones. Oft mutieren wir Variablen bei einer Analyse. Typisch ist etwa die Zentrierung von Variablen auf den Mittelwert der Stichprobe (grand mean; damit bekommen die Variablen einen Mittelwert von 0) oder die z-Standardisierung (Variablen bekommen einen Mittelwert von 0 und eine Standardabweichung von 1).

df_beispiel <- df_beispiel |> mutate(ACT_c = scale(ACT, center = TRUE, scale = FALSE),
                                     ACT_z = scale(ACT, center = TRUE, scale = TRUE))
df_beispiel

# A tibble: 700 × 8
   gender education   age   ACT  SATV  SATQ ACT_c[,1] ACT_z[,1]
    <int>     <int> <int> <int> <int> <int>     <dbl>     <dbl>
 1      2         3    19    24   500   500    -4.55     -0.943
 2      2         3    23    35   600   500     6.45      1.34 
 3      2         3    20    21   480   470    -7.55     -1.56 
 4      1         4    27    26   550   520    -2.55     -0.528
 5      1         2    33    31   600   550     2.45      0.509
 6      1         5    26    28   640   640    -0.547    -0.113
 7      2         5    30    36   610   500     7.45      1.55 
 8      1         3    19    22   520   560    -6.55     -1.36 
 9      2         4    23    22   400   600    -6.55     -1.36 
10      2         5    40    35   730   800     6.45      1.34 
# ℹ 690 more rows
…
